%YAML 1.1
%TAG !u! tag:unity3d.com,2011:
--- !u!114 &11400000
MonoBehaviour:
  m_ObjectHideFlags: 0
  m_PrefabParentObject: {fileID: 0}
  m_PrefabInternal: {fileID: 0}
  m_GameObject: {fileID: 0}
  m_Enabled: 1
  m_EditorHideFlags: 0
  m_Script: {fileID: 11500000, guid: df4ea790d1d4b9d4abf034eddd410e94, type: 3}
  m_Name: TitleExit
  m_EditorClassIdentifier: 
  actionName:
  - exit
  - quit
  - leave
